[
  {
    "preprocessor": false,
    "type": "Punctuator",
    "text": "\u003C\u003C=",
    "constantTokenValue": "LShiftAssign",
    "constantValue": null,
    "lineNumber": 1,
    "characterNumber": 0,
    "skippable": false
  },
  {
    "preprocessor": false,
    "type": "Punctuator",
    "text": "\u003E\u003E=",
    "constantTokenValue": "RShiftAssign",
    "constantValue": null,
    "lineNumber": 2,
    "characterNumber": 4,
    "skippable": false
  },
  {
    "preprocessor": false,
    "type": "Punctuator",
    "text": "\u002B=",
    "constantTokenValue": "AddAssign",
    "constantValue": null,
    "lineNumber": 3,
    "characterNumber": 8,
    "skippable": false
  },
  {
    "preprocessor": false,
    "type": "Punctuator",
    "text": "-=",
    "constantTokenValue": "SubAssign",
    "constantValue": null,
    "lineNumber": 4,
    "characterNumber": 11,
    "skippable": false
  },
  {
    "preprocessor": false,
    "type": "Punctuator",
    "text": "*=",
    "constantTokenValue": "MultiplyAssign",
    "constantValue": null,
    "lineNumber": 5,
    "characterNumber": 14,
    "skippable": false
  },
  {
    "preprocessor": false,
    "type": "Punctuator",
    "text": "/=",
    "constantTokenValue": "DivideAssign",
    "constantValue": null,
    "lineNumber": 6,
    "characterNumber": 17,
    "skippable": false
  },
  {
    "preprocessor": false,
    "type": "Punctuator",
    "text": "%=",
    "constantTokenValue": "ModAssign",
    "constantValue": null,
    "lineNumber": 7,
    "characterNumber": 20,
    "skippable": false
  },
  {
    "preprocessor": false,
    "type": "Punctuator",
    "text": "\u0026=",
    "constantTokenValue": "AndAssign",
    "constantValue": null,
    "lineNumber": 8,
    "characterNumber": 23,
    "skippable": false
  },
  {
    "preprocessor": false,
    "type": "Punctuator",
    "text": "^=",
    "constantTokenValue": "XorAssign",
    "constantValue": null,
    "lineNumber": 9,
    "characterNumber": 26,
    "skippable": false
  },
  {
    "preprocessor": false,
    "type": "Punctuator",
    "text": "|=",
    "constantTokenValue": "OrAssign",
    "constantValue": null,
    "lineNumber": 10,
    "characterNumber": 29,
    "skippable": false
  },
  {
    "preprocessor": false,
    "type": "Punctuator",
    "text": "\u003C\u003C",
    "constantTokenValue": "LShit",
    "constantValue": null,
    "lineNumber": 12,
    "characterNumber": 33,
    "skippable": false
  },
  {
    "preprocessor": false,
    "type": "Punctuator",
    "text": "\u003E\u003E",
    "constantTokenValue": "RShift",
    "constantValue": null,
    "lineNumber": 13,
    "characterNumber": 36,
    "skippable": false
  },
  {
    "preprocessor": false,
    "type": "Punctuator",
    "text": "\u002B\u002B",
    "constantTokenValue": "Increment",
    "constantValue": null,
    "lineNumber": 15,
    "characterNumber": 40,
    "skippable": false
  },
  {
    "preprocessor": false,
    "type": "Punctuator",
    "text": "--",
    "constantTokenValue": "Decrement",
    "constantValue": null,
    "lineNumber": 16,
    "characterNumber": 43,
    "skippable": false
  },
  {
    "preprocessor": false,
    "type": "Punctuator",
    "text": "\u0026\u0026",
    "constantTokenValue": "LogicalAnd",
    "constantValue": null,
    "lineNumber": 18,
    "characterNumber": 47,
    "skippable": false
  },
  {
    "preprocessor": false,
    "type": "Punctuator",
    "text": "||",
    "constantTokenValue": "LogicalOr",
    "constantValue": null,
    "lineNumber": 19,
    "characterNumber": 50,
    "skippable": false
  },
  {
    "preprocessor": false,
    "type": "Punctuator",
    "text": "==",
    "constantTokenValue": "EqualTo",
    "constantValue": null,
    "lineNumber": 21,
    "characterNumber": 54,
    "skippable": false
  },
  {
    "preprocessor": false,
    "type": "Punctuator",
    "text": "!=",
    "constantTokenValue": "NotEqualTo",
    "constantValue": null,
    "lineNumber": 22,
    "characterNumber": 57,
    "skippable": false
  },
  {
    "preprocessor": false,
    "type": "Punctuator",
    "text": "\u003E=",
    "constantTokenValue": "GreaterThanEqualTo",
    "constantValue": null,
    "lineNumber": 23,
    "characterNumber": 60,
    "skippable": false
  },
  {
    "preprocessor": false,
    "type": "Punctuator",
    "text": "\u003C=",
    "constantTokenValue": "LessThanEqualTo",
    "constantValue": null,
    "lineNumber": 24,
    "characterNumber": 63,
    "skippable": false
  },
  {
    "preprocessor": false,
    "type": "Punctuator",
    "text": "\u002B",
    "constantTokenValue": "Add",
    "constantValue": null,
    "lineNumber": 26,
    "characterNumber": 67,
    "skippable": false
  },
  {
    "preprocessor": false,
    "type": "Punctuator",
    "text": "-",
    "constantTokenValue": "Sub",
    "constantValue": null,
    "lineNumber": 27,
    "characterNumber": 69,
    "skippable": false
  },
  {
    "preprocessor": false,
    "type": "Punctuator",
    "text": "*",
    "constantTokenValue": "Star",
    "constantValue": null,
    "lineNumber": 28,
    "characterNumber": 71,
    "skippable": false
  },
  {
    "preprocessor": false,
    "type": "Punctuator",
    "text": "/",
    "constantTokenValue": "Divide",
    "constantValue": null,
    "lineNumber": 29,
    "characterNumber": 73,
    "skippable": false
  },
  {
    "preprocessor": false,
    "type": "Punctuator",
    "text": "%",
    "constantTokenValue": "Mod",
    "constantValue": null,
    "lineNumber": 30,
    "characterNumber": 75,
    "skippable": false
  },
  {
    "preprocessor": false,
    "type": "Punctuator",
    "text": "\u003E",
    "constantTokenValue": "GreaterThan",
    "constantValue": null,
    "lineNumber": 32,
    "characterNumber": 78,
    "skippable": false
  },
  {
    "preprocessor": false,
    "type": "Punctuator",
    "text": "\u003C",
    "constantTokenValue": "LessThan",
    "constantValue": null,
    "lineNumber": 33,
    "characterNumber": 80,
    "skippable": false
  },
  {
    "preprocessor": false,
    "type": "Punctuator",
    "text": "!",
    "constantTokenValue": "LogicalNot",
    "constantValue": null,
    "lineNumber": 34,
    "characterNumber": 82,
    "skippable": false
  },
  {
    "preprocessor": false,
    "type": "Punctuator",
    "text": "~",
    "constantTokenValue": "Not",
    "constantValue": null,
    "lineNumber": 36,
    "characterNumber": 85,
    "skippable": false
  },
  {
    "preprocessor": false,
    "type": "Punctuator",
    "text": "\u0026",
    "constantTokenValue": "Ampersand",
    "constantValue": null,
    "lineNumber": 37,
    "characterNumber": 87,
    "skippable": false
  },
  {
    "preprocessor": false,
    "type": "Punctuator",
    "text": "^",
    "constantTokenValue": "Xor",
    "constantValue": null,
    "lineNumber": 38,
    "characterNumber": 89,
    "skippable": false
  },
  {
    "preprocessor": false,
    "type": "Punctuator",
    "text": "|",
    "constantTokenValue": "Or",
    "constantValue": null,
    "lineNumber": 39,
    "characterNumber": 91,
    "skippable": false
  },
  {
    "preprocessor": false,
    "type": "Punctuator",
    "text": "=",
    "constantTokenValue": "Assign",
    "constantValue": null,
    "lineNumber": 41,
    "characterNumber": 94,
    "skippable": false
  },
  {
    "preprocessor": false,
    "type": "Punctuator",
    "text": "?",
    "constantTokenValue": "QuestionMark",
    "constantValue": null,
    "lineNumber": 43,
    "characterNumber": 97,
    "skippable": false
  },
  {
    "preprocessor": false,
    "type": "Punctuator",
    "text": ":",
    "constantTokenValue": "Colon",
    "constantValue": null,
    "lineNumber": 44,
    "characterNumber": 99,
    "skippable": false
  },
  {
    "preprocessor": false,
    "type": "Punctuator",
    "text": "\u0026",
    "constantTokenValue": "Ampersand",
    "constantValue": null,
    "lineNumber": 46,
    "characterNumber": 102,
    "skippable": false
  },
  {
    "preprocessor": false,
    "type": "Punctuator",
    "text": "*",
    "constantTokenValue": "Star",
    "constantValue": null,
    "lineNumber": 47,
    "characterNumber": 104,
    "skippable": false
  },
  {
    "preprocessor": false,
    "type": "Punctuator",
    "text": "[",
    "constantTokenValue": "OpenBracket",
    "constantValue": null,
    "lineNumber": 49,
    "characterNumber": 107,
    "skippable": false
  },
  {
    "preprocessor": false,
    "type": "Punctuator",
    "text": "]",
    "constantTokenValue": "CloseBracket",
    "constantValue": null,
    "lineNumber": 50,
    "characterNumber": 109,
    "skippable": false
  },
  {
    "preprocessor": false,
    "type": "Punctuator",
    "text": "{",
    "constantTokenValue": "OpenBrace",
    "constantValue": null,
    "lineNumber": 51,
    "characterNumber": 111,
    "skippable": true
  },
  {
    "preprocessor": false,
    "type": "Punctuator",
    "text": "}",
    "constantTokenValue": "CloseBrace",
    "constantValue": null,
    "lineNumber": 52,
    "characterNumber": 113,
    "skippable": true
  },
  {
    "preprocessor": false,
    "type": "Punctuator",
    "text": "(",
    "constantTokenValue": "OpenParenthesis",
    "constantValue": null,
    "lineNumber": 53,
    "characterNumber": 115,
    "skippable": false
  },
  {
    "preprocessor": false,
    "type": "Punctuator",
    "text": ")",
    "constantTokenValue": "CloseParenthesis",
    "constantValue": null,
    "lineNumber": 54,
    "characterNumber": 117,
    "skippable": false
  },
  {
    "preprocessor": false,
    "type": "Punctuator",
    "text": ";",
    "constantTokenValue": "Semicolon",
    "constantValue": null,
    "lineNumber": 56,
    "characterNumber": 120,
    "skippable": false
  },
  {
    "preprocessor": true,
    "type": "Punctuator",
    "text": "#",
    "constantTokenValue": "Hash",
    "constantValue": null,
    "lineNumber": 57,
    "characterNumber": 122,
    "skippable": false
  }
]